…
      ) %>%
      filter(nu >=0)

df_stang_long$angle <- as.integer(df_stang_long$angle)


df_stang_long
```

    ## # A tibble: 26 × 5
    ##    thick alloy   angle     E    nu
    ##    <dbl> <chr>   <int> <dbl> <dbl>
    ##  1 0.022 al_24st     0 10600 0.321
    ##  2 0.022 al_24st    45 10700 0.329
    ##  3 0.022 al_24st    90 10500 0.31 
    ##  4 0.022 al_24st     0 10600 0.323
    ##  5 0.022 al_24st    45 10500 0.331
    ##  6 0.022 al_24st    90 10700 0.323
    ##  7 0.032 al_24st     0 10400 0.329
    ##  8 0.032 al_24st    45 10400 0.318
    ##  9 0.032 al_24st    90 10300 0.322
    ## 10 0.032 al_24st     0 10300 0.319
    ## # … with 16 more rows
…
