…
``` r
summarize(df_samples, mean = mean(strength))
```

    ## # A tibble: 1 × 1
    ##     mean
    ##    <dbl>
    ## 1 39941.

``` r
df_samples
```

    ## # A tibble: 25 × 1
    ##    strength
    ##       <dbl>
    ##  1   39484.
    ##  2   39812.
    ##  3   40052.
    ##  4   40519.
    ##  5   40045.
    ##  6   40160.
    ##  7   40094.
    ##  8   39674.
    ##  9   40144.
    ## 10   39865.
    ## # … with 15 more rows
…
