…
    ## Rows: 3220 Columns: 7
    ## ── Column specification ────────────────────────────────────────────────────────
    ## Delimiter: ","
    ## chr (5): id, geographic_area_name, population_moe, X5, X6
    ## dbl (1): population_estimate
    ## lgl (1): X7
    ## 
    ## ℹ Use `spec()` to retrieve the full column specification for this data.
    ## ℹ Specify the column types or set `show_col_types = FALSE` to quiet this message.

``` r
df_pop
```

    ## # A tibble: 3,220 × 7
    ##    id             geographic_area_name     populatio…¹ popul…² X5    X6    X7   
    ##    <chr>          <chr>                          <dbl> <chr>   <chr> <chr> <lgl>
    ##  1 0500000US01001 Autauga County, Alabama        55200 null    ***** ***** NA   
    ##  2 0500000US01003 Baldwin County, Alabama       208107 null    ***** ***** NA   
    ##  3 0500000US01005 Barbour County, Alabama        25782 null    ***** ***** NA   
    ##  4 0500000US01007 Bibb County, Alabama           22527 null    ***** ***** NA   
    ##  5 0500000US01009 Blount County, Alabama         57645 null    ***** ***** NA   
    ##  6 0500000US01011 Bullock County, Alabama        10352 null    ***** ***** NA   
    ##  7 0500000US01013 Butler County, Alabama         20025 null    ***** ***** NA   
    ##  8 0500000US01015 Calhoun County, Alabama       115098 null    ***** ***** NA   
    ##  9 0500000US01017 Chambers County, Alabama       33826 null    ***** ***** NA   
    ## 10 0500000US01019 Cherokee County, Alabama       25853 null    ***** ***** NA   
    ## # … with 3,210 more rows, and abbreviated variable names ¹​population_estimate,
    ## #   ²​population_moe
…
    ## Rows: 3220 Columns: 483
    ## ── Column specification ────────────────────────────────────────────────────────
    ## Delimiter: ","
    ## chr (306): Geography, Geographic Area Name, Annotation of Margin of Error!!N...
    ## dbl (176): Estimate!!Number!!HOUSEHOLD INCOME BY RACE AND HISPANIC OR LATINO...
    ## lgl   (1): ...483
    ## 
    ## ℹ Use `spec()` to retrieve the full column specification for this data.
    ## ℹ Specify the column types or set `show_col_types = FALSE` to quiet this message.

``` r
df_income
```

    ## # A tibble: 3,220 × 483
    ##    Geography     Geogr…¹ Estim…² Margi…³ Annot…⁴ Annot…⁵ Estim…⁶ Margi…⁷ Annot…⁸
    ##    <chr>         <chr>     <dbl>   <dbl> <chr>   <chr>     <dbl>   <dbl> <chr>  
    ##  1 0500000US010… Autaug…   21115     383 null    null      16585     363 null   
    ##  2 0500000US010… Baldwi…   78622    1183 null    null      69544    1042 null   
    ##  3 0500000US010… Barbou…    9186     280 null    null       4729     211 null   
    ##  4 0500000US010… Bibb C…    6840     321 null    null       5588     346 null   
    ##  5 0500000US010… Blount…   20600     396 null    null      20054     417 null   
    ##  6 0500000US010… Bulloc…    3609     196 null    null        881     119 null   
    ##  7 0500000US010… Butler…    6708     274 null    null       3821     173 null   
    ##  8 0500000US010… Calhou…   45033     683 null    null      33820     559 null   
    ##  9 0500000US010… Chambe…   13516     372 null    null       7953     296 null   
    ## 10 0500000US010… Cherok…   10606     370 null    null       9953     356 null   
    ## # … with 3,210 more rows, 474 more variables:
    ## #   `Annotation of Estimate!!Number!!HOUSEHOLD INCOME BY RACE AND HISPANIC OR LATINO ORIGIN OF HOUSEHOLDER!!Households!!One race--!!White` <chr>,
    ## #   `Estimate!!Number!!HOUSEHOLD INCOME BY RACE AND HISPANIC OR LATINO ORIGIN OF HOUSEHOLDER!!Households!!One race--!!Black or African American` <dbl>,
    ## #   `Annotation of Estimate!!Number!!HOUSEHOLD INCOME BY RACE AND HISPANIC OR LATINO ORIGIN OF HOUSEHOLDER!!Households!!One race--!!Black or African American` <chr>,
    ## #   `Margin of Error!!Number MOE!!HOUSEHOLD INCOME BY RACE AND HISPANIC OR LATINO ORIGIN OF HOUSEHOLDER!!Households!!One race--!!Black or African American` <dbl>,
    ## #   `Annotation of Margin of Error!!Number MOE!!HOUSEHOLD INCOME BY RACE AND HISPANIC OR LATINO ORIGIN OF HOUSEHOLDER!!Households!!One race--!!Black or African American` <chr>,
    ## #   `Estimate!!Number!!HOUSEHOLD INCOME BY RACE AND HISPANIC OR LATINO ORIGIN OF HOUSEHOLDER!!Households!!One race--!!American Indian and Alaska Native` <dbl>, …
…
    ## Warning in mask$eval_all_mutate(quo): NAs introduced by coercion

    ## Warning in mask$eval_all_mutate(quo): NAs introduced by coercion

    ## Warning in mask$eval_all_mutate(quo): NAs introduced by coercion

    ## Warning in mask$eval_all_mutate(quo): NAs introduced by coercion

    ## Warning in mask$eval_all_mutate(quo): NAs introduced by coercion

``` r
df_q3
```

    ## # A tibble: 15,286 × 5
    ##    id             geographic_area_name    category          income_est…¹ incom…²
    ##    <chr>          <chr>                   <chr>                    <dbl>   <dbl>
    ##  1 0500000US01001 Autauga County, Alabama 2-person families        64947    6663
    ##  2 0500000US01001 Autauga County, Alabama 3-person families        80172   14181
    ##  3 0500000US01001 Autauga County, Alabama 4-person families        85455   10692
    ##  4 0500000US01001 Autauga County, Alabama 5-person families        88601   20739
    ##  5 0500000US01001 Autauga County, Alabama 6-person families       103787   12387
    ##  6 0500000US01003 Baldwin County, Alabama 2-person families        63975    2297
    ##  7 0500000US01003 Baldwin County, Alabama 3-person families        79390    8851
    ##  8 0500000US01003 Baldwin County, Alabama 4-person families        88458    5199
    ##  9 0500000US01003 Baldwin County, Alabama 5-person families        91259    7011
    ## 10 0500000US01003 Baldwin County, Alabama 6-person families        69609   23175
    ## # … with 15,276 more rows, and abbreviated variable names ¹​income_estimate,
    ## #   ²​income_moe
…
$$\text{MOE} = 1.645 \times \text{SE}.$$

### **q4** Convert the margin of error to standard error. Additionally, compute a 99% confidence interval on income, and normalize the standard error to `income_CV = income_SE / income_estimate`. Provide these columns with the names `income_SE, income_lo, income_hi, income_CV`.

``` r
df_q4 <-
  df_q3 %>%
    mutate(income_SE = (income_moe/1.645)) %>%
    mutate(income_CV = (income_SE/income_estimate)) %>%
    mutate(income_lo = income_estimate - income_SE*2.576) %>% # Multiplied by the z value
    mutate(income_hi = income_estimate + income_SE*2.576) 
df_q4
```

    ## # A tibble: 15,286 × 9
    ##    id            geogr…¹ categ…² incom…³ incom…⁴ incom…⁵ incom…⁶ incom…⁷ incom…⁸
    ##    <chr>         <chr>   <chr>     <dbl>   <dbl>   <dbl>   <dbl>   <dbl>   <dbl>
    ##  1 0500000US010… Autaug… 2-pers…   64947    6663   4050.  0.0624  54513.  75381.
    ##  2 0500000US010… Autaug… 3-pers…   80172   14181   8621.  0.108   57965. 102379.
    ##  3 0500000US010… Autaug… 4-pers…   85455   10692   6500.  0.0761  68712. 102198.
    ##  4 0500000US010… Autaug… 5-pers…   88601   20739  12607.  0.142   56125. 121077.
    ##  5 0500000US010… Autaug… 6-pers…  103787   12387   7530.  0.0726  84389. 123185.
    ##  6 0500000US010… Baldwi… 2-pers…   63975    2297   1396.  0.0218  60378.  67572.
    ##  7 0500000US010… Baldwi… 3-pers…   79390    8851   5381.  0.0678  65530.  93250.
    ##  8 0500000US010… Baldwi… 4-pers…   88458    5199   3160.  0.0357  80317.  96599.
    ##  9 0500000US010… Baldwi… 5-pers…   91259    7011   4262.  0.0467  80280. 102238.
    ## 10 0500000US010… Baldwi… 6-pers…   69609   23175  14088.  0.202   33318. 105900.
    ## # … with 15,276 more rows, and abbreviated variable names
    ## #   ¹​geographic_area_name, ²​category, ³​income_estimate, ⁴​income_moe,
    ## #   ⁵​income_SE, ⁶​income_CV, ⁷​income_lo, ⁸​income_hi
…
``` r
## TODO: Join df_q4 and df_pop by the appropriate column

df_data <-
  df_pop %>% 
  inner_join(df_q4, by = "id") %>% 
  subset(select = -geographic_area_name.y) %>%
  rename("geographic_area_name" = "geographic_area_name.x")


df_data
```

    ## # A tibble: 15,286 × 14
    ##    id          geogr…¹ popul…² popul…³ X5    X6    X7    categ…⁴ incom…⁵ incom…⁶
    ##    <chr>       <chr>     <dbl> <chr>   <chr> <chr> <lgl> <chr>     <dbl>   <dbl>
    ##  1 0500000US0… Autaug…   55200 null    ***** ***** NA    2-pers…   64947    6663
    ##  2 0500000US0… Autaug…   55200 null    ***** ***** NA    3-pers…   80172   14181
    ##  3 0500000US0… Autaug…   55200 null    ***** ***** NA    4-pers…   85455   10692
    ##  4 0500000US0… Autaug…   55200 null    ***** ***** NA    5-pers…   88601   20739
    ##  5 0500000US0… Autaug…   55200 null    ***** ***** NA    6-pers…  103787   12387
    ##  6 0500000US0… Baldwi…  208107 null    ***** ***** NA    2-pers…   63975    2297
    ##  7 0500000US0… Baldwi…  208107 null    ***** ***** NA    3-pers…   79390    8851
    ##  8 0500000US0… Baldwi…  208107 null    ***** ***** NA    4-pers…   88458    5199
    ##  9 0500000US0… Baldwi…  208107 null    ***** ***** NA    5-pers…   91259    7011
    ## 10 0500000US0… Baldwi…  208107 null    ***** ***** NA    6-pers…   69609   23175
    ## # … with 15,276 more rows, 4 more variables: income_SE <dbl>, income_CV <dbl>,
    ## #   income_lo <dbl>, income_hi <dbl>, and abbreviated variable names
    ## #   ¹​geographic_area_name, ²​population_estimate, ³​population_moe, ⁴​category,
    ## #   ⁵​income_estimate, ⁶​income_moe
…
